{
    "target_overrides": {
        "*": {
            "platform.thread-stats-enabled": true,
            "platform.heap-stats-enabled": true,
            "platform.stack-stats-enabled": true
        }
    }
}
